Sentiment Analysis of ASHE2016 Tweets
…
Next, grab the sentiments and associate them with the words, then count the number of sentiments of each type expressed each day.

by_day_sentiment <- tweet_words %>%
  inner_join(nrc, by = "word") %>%
  count(sentiment,day)

Heres what the data look like:

by_day_sentiment

## Source: local data frame [24 x 3]
## Groups: sentiment [?]
## 
##       sentiment        day     n
##           <chr>     <date> <int>
## 1         anger 2016-11-01     2
## 2         anger 2016-11-02     3
## 3  anticipation 2016-11-01     2
## 4  anticipation 2016-11-02    17
## 5  anticipation 2016-11-03     5
## 6          fear 2016-11-01     2
## 7          fear 2016-11-02     3
## 8          fear 2016-11-03     1
## 9           joy 2016-11-01     2
## 10          joy 2016-11-02     3
## # ... with 14 more rows
…
